Chapter 8 Data wrangling | Biology 723: Statistical Computing for Biologists
…
In gene.info, the ftr.name column corresponds to the gene column in our Spellman data set. The std.name column gives the “common” gene name (not every gene has a common name so there are lots of NAs). The description column gives a brief textual description of what the gene product does.

To combine spellmean.clean with gene.info we use the left_join function defined in dplyr. As noted in the description of the function, left_join(x, y) returns “all rows from x, and all columns from x and y. Rows in x with no match in y will have NA values in the new columns.” In addition, we have to specify the column to join by using the by argument to left_join.

spellman.merged <-
  left_join(spellman.clean, gene.info, by = c("gene" = "ftr.name"))

By default, the joined columns are merged at the end of the data frame, so we’ll reorder variables to bring the std.name and description to the second and thirds columns, preserving the order of all the other colums.

spellman.merged %<>%
  dplyr::select(gene, std.name, description, everything())

spellman.merged
## # A tibble: 6,178 x 76
##    gene  std.name description alpha0 alpha7 alpha14 alpha21 alpha28 alpha35
##    <chr> <chr>    <chr>        <dbl>  <dbl>   <dbl>   <dbl>   <dbl>   <dbl>
##  1 YAL0… TFC3     Subunit of…  -0.15  -0.15   -0.21    0.17   -0.42  -0.44 
##  2 YAL0… VPS8     Membrane-b…  -0.11   0.1     0.01    0.06    0.04  -0.26 
##  3 YAL0… EFB1     Translatio…  -0.14  -0.71    0.1    -0.32   -0.4   -0.580
##  4 YAL0… <NA>     Dubious op…  -0.02  -0.48   -0.11    0.12   -0.03   0.19 
##  5 YAL0… SSA1     ATPase inv…  -0.05  -0.53   -0.47   -0.06    0.11  -0.07 
##  6 YAL0… ERP2     Member of …  -0.6   -0.45   -0.13    0.35   -0.01   0.49 
##  7 YAL0… FUN14    Integral m…  -0.28  -0.22   -0.06    0.22    0.25   0.13 
##  8 YAL0… SPO7     Putative r…  -0.03  -0.27    0.17   -0.12   -0.27   0.06 
##  9 YAL0… MDM10    Subunit of…  -0.05   0.13    0.13   -0.21   -0.45  -0.21 
## 10 YAL0… SWC3     Protein of…  -0.31  -0.43   -0.3    -0.23   -0.13  -0.07 
## # … with 6,168 more rows, and 67 more variables: alpha42 <dbl>, alpha49 <dbl>,
## #   alpha56 <dbl>, alpha63 <dbl>, alpha70 <dbl>, alpha77 <dbl>, alpha84 <dbl>,
## #   alpha91 <dbl>, alpha98 <dbl>, alpha105 <dbl>, alpha112 <dbl>,
## #   alpha119 <dbl>, cdc15_10 <dbl>, cdc15_30 <dbl>, cdc15_50 <dbl>,
## #   cdc15_70 <dbl>, cdc15_80 <dbl>, cdc15_90 <dbl>, cdc15_100 <dbl>,
## #   cdc15_110 <dbl>, cdc15_120 <dbl>, cdc15_130 <dbl>, cdc15_140 <dbl>,
## #   cdc15_150 <dbl>, cdc15_160 <dbl>, cdc15_170 <dbl>, cdc15_180 <dbl>,
## #   cdc15_190 <dbl>, cdc15_200 <dbl>, cdc15_210 <dbl>, cdc15_220 <dbl>,
## #   cdc15_230 <dbl>, cdc15_240 <dbl>, cdc15_250 <dbl>, cdc15_270 <dbl>,
…
