Biology 723: Statistical Computing for Biologists
…
13.3.4 Generating statistics for many random samples

Now we’ll see how to combine rsample.stats with two additional functions to repeatedly run the rsample.stats function:

df.samples.of.30 <-
  rerun(1000,  rsample.stats(height.data, 30, "height")) %>%
  bind_rows()

The function rerun is defined in the purrr library (automatically loaded with tidyverse). purrr:rerun() re-runs an expression(s) multiple times. The first argument to rerun() is the number of times you want to re-run, and the following arguments are the expressions to be re-run. Thus the second line of the code block above re-runs the rsample.stats function 1000 times using height.data as the input, generating sample statistics for samples of size 30 each time it’s run. rerun returns a list whose length is the specified number of runs.

The third line includes a call the dplyr::bind_rows(). This simply takes the list that rerun returns and collapses the list into a single data frame. df.samples.of.30 is thus a data frame in which each row gives the sample size, sample mean, and sample standard deviation for a random sample of 30 individuals drawn from our underlying population (height.data).

df.samples.of.30
# A tibble: 1,000 x 3
   sample.size sample.mean sample.sd
         <dbl>       <dbl>     <dbl>
 1         30.        177.      18.0
 2         30.        173.      14.6
 3         30.        178.      15.1
 4         30.        171.      16.9
 5         30.        176.      12.7
 6         30.        176.      13.5
 7         30.        177.      15.2
 8         30.        178.      19.3
 9         30.        171.      15.5
10         30.        175.      13.0
# ... with 990 more rows
…
