D Simulating confidence intervals | Biology 723: Statistical Computing for Biologists
…
z.values <- seq(1, 3, 0.05)

perc.in.CI <- c()

for (z in z.values) {
  CI.left <- samples.of.50$sample.mean - z * samples.of.50$sample.se
  CI.right <- samples.of.50$sample.mean + z * samples.of.50$sample.se
  mean.in.CI <- (CI.left <= true.values$mean) & (CI.right >= true.values$mean)
  perc.in.CI <- c(perc.in.CI, 100 * sum(mean.in.CI)/length(mean.in.CI))
}

CI.df <- data_frame(z = z.values, perc.brackets.mean = perc.in.CI)

CI.df
## # A tibble: 41 x 2
##        z perc.brackets.mean
##    <dbl>              <dbl>
##  1  1                  67.1
##  2  1.05               69.9
##  3  1.1                71.8
##  4  1.15               74.8
##  5  1.2                76.9
##  6  1.25               79.2
##  7  1.3                81.3
##  8  1.35               82.6
##  9  1.4                84.2
## 10  1.45               85.9
## # … with 31 more rows
…
